{
	"code": 1,
	"msg": "商品列表",
	"time": "1610190335",
	"data": {
		"total": 16,
		"per_page": 10,
		"current_page": 1,
		"last_page": 2,
		"data": [{
			"id": 17,
			"type": "normal",
			"title": "JMsolution韩国粉色玫瑰防晒SPF50户外美白超强隔离JM防晒喷雾",
			"subtitle": "防晒喷雾",
			"weigh": 17,
			"category_ids": "3,70",
			"image": "http://shopro-1253949872.image.myqcloud.com/uploads/20200430/3e61ab01c9280667d36d2e0a38021a66.jpg_2200x2200Q100s50.jpg_.webp.jpg",
			"price": "199.00",
			"original_price": "365.00",
			"is_sku": 1,
			"likes": 0,
			"views": 699,
			"sales": 0,
			"show_sales": 600,
			"dispatch_type": "express",
			"dispatch_ids": "1",
			"deletetime": null,
			"total_sales": 631,
			"activity": {
				"goods_ids": "17,15,14,13",
				"richtext_title": "拼团说明",
				"rules": {
					"limit_buy": "3",
					"order_auto_close": "5",
					"activity_auto_close": "10"
				},
				"richtext_id": "4",
				"title": "品质秒杀专区",
				"id": "2",
				"endtime": "1645977600",
				"starttime": "1610121600",
				"type": "seckill"
			},
			"activity_type": "seckill",
			"sku_price": [{
				"id": 72,
				"goods_sku_ids": "89,91",
				"goods_id": 17,
				"weigh": 0,
				"image": "http://shopro-1253949872.image.myqcloud.com/uploads/20200430/eb135ec03c5157feb365cff72cd2e4ab.jpg_2200x2200Q100s50.jpg_.webp.jpg",
				"stock": 300,
				"sales": 0,
				"sn": "001",
				"weight": 50,
				"price": "199.00",
				"goods_sku_text": "100ml,粉色",
				"status": "up",
				"activity_type": "seckill",
				"activity_id": "2",
				"item_goods_sku_price": {
					"id": 6,
					"activity_id": 2,
					"sku_price_id": 72,
					"goods_id": 17,
					"stock": 300,
					"sales": 0,
					"price": "199.00",
					"status": "up"
				},
				"goods_sku_id_arr": ["89", "91"]
			}, {
				"id": 73,
				"goods_sku_ids": "89,92",
				"goods_id": 17,
				"weigh": 0,
				"image": "http://shopro-1253949872.image.myqcloud.com/uploads/20200430/3e61ab01c9280667d36d2e0a38021a66.jpg_2200x2200Q100s50.jpg_.webp.jpg",
				"stock": 300,
				"sales": 0,
				"sn": "001",
				"weight": 50,
				"price": "199.00",
				"goods_sku_text": "100ml,绿色",
				"status": "up",
				"activity_type": "seckill",
				"activity_id": "2",
				"item_goods_sku_price": {
					"id": 7,
					"activity_id": 2,
					"sku_price_id": 73,
					"goods_id": 17,
					"stock": 300,
					"sales": 0,
					"price": "199.00",
					"status": "up"
				},
				"goods_sku_id_arr": ["89", "92"]
			}],
			"stock": 600,
			"dispatch_type_arr": ["express"]
		}, {
			"id": 1,
			"type": "normal",
			"title": " Canon/佳能1500D 单反相机 18-55mm防抖套机 EOS 入门级 蚂蚁摄影",
			"subtitle": "佳能爆款单反｜操作简单｜上手快｜新手必备",
			"weigh": 16,
			"category_ids": "126",
			"image": "http://shopro-1253949872.image.myqcloud.com/uploads/20200429/ea9590d9a47a101b70d4ee4972250ab6.jpg",
			"price": "2899",
			"original_price": "3799.00",
			"is_sku": 1,
			"likes": 425,
			"views": 514,
			"sales": 88898,
			"show_sales": 0,
			"dispatch_type": "express",
			"dispatch_ids": "1",
			"deletetime": null,
			"total_sales": 88898,
			"activity": null,
			"activity_type": null,
			"sku_price": [{
				"id": 1,
				"goods_sku_ids": "2",
				"goods_id": 1,
				"weigh": 0,
				"image": "http://shopro-1253949872.image.myqcloud.com/uploads/20200429/1e749e3fae8118a4756a34400f61050e.jpg",
				"stock": 89,
				"sales": 11,
				"sn": "100",
				"weight": 1,
				"price": "2999.00",
				"goods_sku_text": "12",
				"status": "up",
				"goods_sku_id_arr": ["2"]
			}, {
				"id": 2,
				"goods_sku_ids": "3",
				"goods_id": 1,
				"weigh": 0,
				"image": "http://shopro-1253949872.image.myqcloud.com/uploads/20200429/e569b20e1586bcfb9ee4cce01847e083.jpg",
				"stock": 100,
				"sales": 0,
				"sn": "100",
				"weight": 1,
				"price": "2999.00",
				"goods_sku_text": "12",
				"status": "up",
				"goods_sku_id_arr": ["3"]
			}],
			"stock": 189,
			"dispatch_type_arr": ["express"]
		}, {
			"id": 15,
			"type": "normal",
			"title": "布朗博士旗舰店新生婴儿玻璃奶瓶防呛奶瓶防胀气宽口径奶瓶",
			"subtitle": "口碑之选",
			"weigh": 15,
			"category_ids": "4",
			"image": "http://api.7wpp.com/uploads/20200415/356bead1ea234354168954aa55e98d7a.jpg",
			"price": "99.00",
			"original_price": "199.00",
			"is_sku": 1,
			"likes": 5234,
			"views": 5592,
			"sales": 2,
			"show_sales": 0,
			"dispatch_type": "express",
			"dispatch_ids": "1",
			"deletetime": null,
			"total_sales": 4837,
			"activity": {
				"goods_ids": "17,15,14,13",
				"richtext_title": "拼团说明",
				"rules": {
					"limit_buy": "3",
					"order_auto_close": "5",
					"activity_auto_close": "10"
				},
				"richtext_id": "4",
				"title": "品质秒杀专区",
				"id": "2",
				"endtime": "1645977600",
				"starttime": "1610121600",
				"type": "seckill"
			},
			"activity_type": "seckill",
			"sku_price": [{
				"id": 66,
				"goods_sku_ids": "79",
				"goods_id": 15,
				"weigh": 0,
				"image": "http://shopro-1253949872.image.myqcloud.com/uploads/20200429/356bead1ea234354168954aa55e98d7a.jpg",
				"stock": 300,
				"sales": 0,
				"sn": "0006",
				"weight": 1,
				"price": "99.00",
				"goods_sku_text": "150ml",
				"status": "up",
				"activity_type": "seckill",
				"activity_id": "2",
				"item_goods_sku_price": {
					"id": 8,
					"activity_id": 2,
					"sku_price_id": 66,
					"goods_id": 15,
					"stock": 300,
					"sales": 0,
					"price": "99.00",
					"status": "up"
				},
				"goods_sku_id_arr": ["79"]
			}, {
				"id": 67,
				"goods_sku_ids": "80",
				"goods_id": 15,
				"weigh": 0,
				"image": "http://shopro-1253949872.image.myqcloud.com/uploads/20200429/356bead1ea234354168954aa55e98d7a.jpg",
				"stock": 300,
				"sales": 0,
				"sn": "0006",
				"weight": 1,
				"price": "99.00",
				"goods_sku_text": "270ml",
				"status": "up",
				"activity_type": "seckill",
				"activity_id": "2",
				"item_goods_sku_price": {
					"id": 9,
					"activity_id": 2,
					"sku_price_id": 67,
					"goods_id": 15,
					"stock": 300,
					"sales": 0,
					"price": "99.00",
					"status": "up"
				},
				"goods_sku_id_arr": ["80"]
			}, {
				"id": 68,
				"goods_sku_ids": "81",
				"goods_id": 15,
				"weigh": 0,
				"image": "http://shopro-1253949872.image.myqcloud.com/uploads/20200429/356bead1ea234354168954aa55e98d7a.jpg",
				"stock": 298,
				"sales": 2,
				"sn": "0006",
				"weight": 1,
				"price": "199.00",
				"goods_sku_text": "150ml+270ml",
				"status": "up",
				"activity_type": "seckill",
				"activity_id": "2",
				"item_goods_sku_price": {
					"id": 10,
					"activity_id": 2,
					"sku_price_id": 68,
					"goods_id": 15,
					"stock": 298,
					"sales": 2,
					"price": "199.00",
					"status": "up"
				},
				"goods_sku_id_arr": ["81"]
			}],
			"stock": 898,
			"dispatch_type_arr": ["express"]
		}, {
			"id": 14,
			"type": "normal",
			"title": "Dyson/戴森AM09无叶电风扇冷暖两用暖风取暖器冬季家居小型取暖机",
			"subtitle": "冷暖两用 即开即热 温暖过冬",
			"weigh": 14,
			"category_ids": "6,111",
			"image": "http://api.7wpp.com/uploads/20200415/af4e93db61399b53e0f3ac5f0ae139d2.jpg",
			"price": "1999.00",
			"original_price": "3999.00",
			"is_sku": 1,
			"likes": 45,
			"views": 1804,
			"sales": 0,
			"show_sales": 0,
			"dispatch_type": "express",
			"dispatch_ids": "1",
			"deletetime": null,
			"total_sales": 32,
			"activity": {
				"goods_ids": "17,15,14,13",
				"richtext_title": "拼团说明",
				"rules": {
					"limit_buy": "3",
					"order_auto_close": "5",
					"activity_auto_close": "10"
				},
				"richtext_id": "4",
				"title": "品质秒杀专区",
				"id": "2",
				"endtime": "1645977600",
				"starttime": "1610121600",
				"type": "seckill"
			},
			"activity_type": "seckill",
			"sku_price": [{
				"id": 65,
				"goods_sku_ids": "77",
				"goods_id": 14,
				"weigh": 0,
				"image": "http://shopro-1253949872.image.myqcloud.com/uploads/20200429/af4e93db61399b53e0f3ac5f0ae139d2.jpg",
				"stock": 9,
				"sales": 0,
				"sn": "74858563",
				"weight": 5,
				"price": "1999.00",
				"goods_sku_text": "白色",
				"status": "up",
				"activity_type": "seckill",
				"activity_id": "2",
				"item_goods_sku_price": {
					"id": 11,
					"activity_id": 2,
					"sku_price_id": 65,
					"goods_id": 14,
					"stock": 9,
					"sales": 0,
					"price": "1999.00",
					"status": "up"
				},
				"goods_sku_id_arr": ["77"]
			}],
			"stock": 9,
			"dispatch_type_arr": ["express"]
		}, {
			"id": 13,
			"type": "normal",
			"title": "左西童装男童卫衣春装2020新款儿童韩版宝宝上衣春秋中大童洋气潮",
			"subtitle": "绒面触感，手感舒适",
			"weigh": 13,
			"category_ids": "4,80",
			"image": "http://shopro-1253949872.image.myqcloud.com/uploads/20200529/061fd0002ac30eb8810b604231c50910.jpg",
			"price": "49.00",
			"original_price": "89.00",
			"is_sku": 1,
			"likes": 8526,
			"views": 9757,
			"sales": 0,
			"show_sales": 0,
			"dispatch_type": "express",
			"dispatch_ids": "1",
			"deletetime": null,
			"total_sales": 88910,
			"activity": {
				"goods_ids": "17,15,14,13",
				"richtext_title": "拼团说明",
				"rules": {
					"limit_buy": "3",
					"order_auto_close": "5",
					"activity_auto_close": "10"
				},
				"richtext_id": "4",
				"title": "品质秒杀专区",
				"id": "2",
				"endtime": "1645977600",
				"starttime": "1610121600",
				"type": "seckill"
			},
			"activity_type": "seckill",
			"sku_price": [{
				"id": 59,
				"goods_sku_ids": "70,73",
				"goods_id": 13,
				"weigh": 0,
				"image": "http://shopro-1253949872.image.myqcloud.com/uploads/20200429/7abe73cebee6c63f6b549d160a8cbe94.jpg",
				"stock": 300,
				"sales": 0,
				"sn": "0006",
				"weight": 1,
				"price": "49.00",
				"goods_sku_text": "米白,110cm",
				"status": "up",
				"activity_type": "seckill",
				"activity_id": "2",
				"item_goods_sku_price": {
					"id": 12,
					"activity_id": 2,
					"sku_price_id": 59,
					"goods_id": 13,
					"stock": 300,
					"sales": 0,
					"price": "49.00",
					"status": "up"
				},
				"goods_sku_id_arr": ["70", "73"]
			}, {
				"id": 60,
				"goods_sku_ids": "70,74",
				"goods_id": 13,
				"weigh": 0,
				"image": "http://shopro-1253949872.image.myqcloud.com/uploads/20200429/7abe73cebee6c63f6b549d160a8cbe94.jpg",
				"stock": 300,
				"sales": 0,
				"sn": "0006",
				"weight": 1,
				"price": "49.00",
				"goods_sku_text": "米白,120cm",
				"status": "up",
				"activity_type": "seckill",
				"activity_id": "2",
				"item_goods_sku_price": {
					"id": 13,
					"activity_id": 2,
					"sku_price_id": 60,
					"goods_id": 13,
					"stock": 300,
					"sales": 0,
					"price": "49.00",
					"status": "up"
				},
				"goods_sku_id_arr": ["70", "74"]
			}, {
				"id": 61,
				"goods_sku_ids": "70,75",
				"goods_id": 13,
				"weigh": 0,
				"image": "http://shopro-1253949872.image.myqcloud.com/uploads/20200429/7abe73cebee6c63f6b549d160a8cbe94.jpg",
				"stock": 300,
				"sales": 0,
				"sn": "0006",
				"weight": 1,
				"price": "49.00",
				"goods_sku_text": "米白,130cm",
				"status": "up",
				"activity_type": "seckill",
				"activity_id": "2",
				"item_goods_sku_price": {
					"id": 14,
					"activity_id": 2,
					"sku_price_id": 61,
					"goods_id": 13,
					"stock": 300,
					"sales": 0,
					"price": "49.00",
					"status": "up"
				},
				"goods_sku_id_arr": ["70", "75"]
			}, {
				"id": 62,
				"goods_sku_ids": "71,73",
				"goods_id": 13,
				"weigh": 0,
				"image": "http://api.7wpp.com/uploads/20200415/061fd0002ac30eb8810b604231c50910.jpg",
				"stock": 300,
				"sales": 0,
				"sn": "0006",
				"weight": 1,
				"price": "49.00",
				"goods_sku_text": "蓝色,110cm",
				"status": "up",
				"activity_type": "seckill",
				"activity_id": "2",
				"item_goods_sku_price": {
					"id": 15,
					"activity_id": 2,
					"sku_price_id": 62,
					"goods_id": 13,
					"stock": 300,
					"sales": 0,
					"price": "49.00",
					"status": "up"
				},
				"goods_sku_id_arr": ["71", "73"]
			}, {
				"id": 63,
				"goods_sku_ids": "71,74",
				"goods_id": 13,
				"weigh": 0,
				"image": "http://api.7wpp.com/uploads/20200415/061fd0002ac30eb8810b604231c50910.jpg",
				"stock": 300,
				"sales": 0,
				"sn": "0006",
				"weight": 1,
				"price": "49.00",
				"goods_sku_text": "蓝色,120cm",
				"status": "up",
				"activity_type": "seckill",
				"activity_id": "2",
				"item_goods_sku_price": {
					"id": 16,
					"activity_id": 2,
					"sku_price_id": 63,
					"goods_id": 13,
					"stock": 300,
					"sales": 0,
					"price": "49.00",
					"status": "up"
				},
				"goods_sku_id_arr": ["71", "74"]
			}, {
				"id": 64,
				"goods_sku_ids": "71,75",
				"goods_id": 13,
				"weigh": 0,
				"image": "http://api.7wpp.com/uploads/20200415/061fd0002ac30eb8810b604231c50910.jpg",
				"stock": 300,
				"sales": 0,
				"sn": "0006",
				"weight": 1,
				"price": "49.00",
				"goods_sku_text": "蓝色,130cm",
				"status": "up",
				"activity_type": "seckill",
				"activity_id": "2",
				"item_goods_sku_price": {
					"id": 17,
					"activity_id": 2,
					"sku_price_id": 64,
					"goods_id": 13,
					"stock": 300,
					"sales": 0,
					"price": "49.00",
					"status": "up"
				},
				"goods_sku_id_arr": ["71", "75"]
			}],
			"stock": 1800,
			"dispatch_type_arr": ["express"]
		}, {
			"id": 12,
			"type": "normal",
			"title": " Carote麦饭石奶锅不粘锅宝宝辅食锅婴儿煮奶锅雪平锅煮锅泡面锅",
			"subtitle": "玻璃盖、锅深不溢；锅体质保99天、明火通用",
			"weigh": 12,
			"category_ids": "17,39",
			"image": "http://api.7wpp.com/uploads/20200415/6d4cd145ef879aabc4dc9aa0c9a3c28d.jpg",
			"price": "99.00",
			"original_price": "372.00",
			"is_sku": 1,
			"likes": 45,
			"views": 151,
			"sales": 0,
			"show_sales": 102,
			"dispatch_type": "express",
			"dispatch_ids": "1",
			"deletetime": null,
			"total_sales": 4281,
			"activity": {
				"goods_ids": "12,11,10,9",
				"richtext_title": "拼团说明",
				"rules": {
					"limit_buy": "4",
					"order_auto_close": "5",
					"activity_auto_close": "10",
					"team_num": "3",
					"is_alone": "1",
					"is_fictitious": "1",
					"fictitious_num": "2",
					"valid_time": "24",
					"team_card": "1"
				},
				"richtext_id": "4",
				"title": "超值拼团",
				"id": "3",
				"endtime": "1645977600",
				"starttime": "1610121600",
				"type": "groupon"
			},
			"activity_type": "groupon",
			"groupon_price": "79.00",
			"sku_price": [{
				"id": 56,
				"goods_sku_ids": "66",
				"goods_id": 12,
				"weigh": 0,
				"image": "http://shopro-1253949872.image.myqcloud.com/uploads/20200429/f3a9e30ef668b38ba869fdb3e005a7de.jpg",
				"stock": 24,
				"sales": 0,
				"sn": "GBEN8118",
				"weight": 2,
				"price": "99.00",
				"goods_sku_text": "复古绿",
				"status": "up",
				"groupon_price": "79.00",
				"activity_type": "groupon",
				"activity_id": "3",
				"item_goods_sku_price": {
					"id": 18,
					"activity_id": 3,
					"sku_price_id": 56,
					"goods_id": 12,
					"stock": 24,
					"sales": 0,
					"price": "79.00",
					"status": "up"
				},
				"goods_sku_id_arr": ["66"]
			}, {
				"id": 57,
				"goods_sku_ids": "67",
				"goods_id": 12,
				"weigh": 0,
				"image": "http://shopro-1253949872.image.myqcloud.com/uploads/20200429/6da403f2d407a6b61c497e360949e883.jpg",
				"stock": 42,
				"sales": 0,
				"sn": "GBEN8118",
				"weight": 2,
				"price": "99.00",
				"goods_sku_text": "淡藕粉",
				"status": "up",
				"groupon_price": "79.00",
				"activity_type": "groupon",
				"activity_id": "3",
				"item_goods_sku_price": {
					"id": 19,
					"activity_id": 3,
					"sku_price_id": 57,
					"goods_id": 12,
					"stock": 42,
					"sales": 0,
					"price": "79.00",
					"status": "up"
				},
				"goods_sku_id_arr": ["67"]
			}, {
				"id": 58,
				"goods_sku_ids": "68",
				"goods_id": 12,
				"weigh": 0,
				"image": "http://shopro-1253949872.image.myqcloud.com/uploads/20200429/4a8b37c67707639ee06d5011ea0cc859.jpg",
				"stock": 43,
				"sales": 0,
				"sn": "GBEN8118",
				"weight": 2,
				"price": "99.00",
				"goods_sku_text": "莫吉托黄",
				"status": "up",
				"groupon_price": "79.00",
				"activity_type": "groupon",
				"activity_id": "3",
				"item_goods_sku_price": {
					"id": 20,
					"activity_id": 3,
					"sku_price_id": 58,
					"goods_id": 12,
					"stock": 43,
					"sales": 0,
					"price": "79.00",
					"status": "up"
				},
				"goods_sku_id_arr": ["68"]
			}],
			"stock": 109,
			"dispatch_type_arr": ["express"]
		}, {
			"id": 11,
			"type": "normal",
			"title": "海飞丝清爽去油洗发水去屑洗发水露750 控油止痒男女长效去屑",
			"subtitle": "新老包装随机发货，敬请谅解",
			"weigh": 11,
			"category_ids": "3,70",
			"image": "http://api.7wpp.com/uploads/20200415/158f4c2332c47b0d986906ee4f2a7cb2.jpg",
			"price": "55.80",
			"original_price": "66.00",
			"is_sku": 1,
			"likes": 2666,
			"views": 3737,
			"sales": 0,
			"show_sales": 0,
			"dispatch_type": "express",
			"dispatch_ids": "1",
			"deletetime": null,
			"total_sales": 2577,
			"activity": {
				"goods_ids": "12,11,10,9",
				"richtext_title": "拼团说明",
				"rules": {
					"limit_buy": "4",
					"order_auto_close": "5",
					"activity_auto_close": "10",
					"team_num": "3",
					"is_alone": "1",
					"is_fictitious": "1",
					"fictitious_num": "2",
					"valid_time": "24",
					"team_card": "1"
				},
				"richtext_id": "4",
				"title": "超值拼团",
				"id": "3",
				"endtime": "1645977600",
				"starttime": "1610121600",
				"type": "groupon"
			},
			"activity_type": "groupon",
			"groupon_price": "49.00",
			"sku_price": [{
				"id": 53,
				"goods_sku_ids": "60,64",
				"goods_id": 11,
				"weigh": 0,
				"image": "http://api.7wpp.com/uploads/20200415/158f4c2332c47b0d986906ee4f2a7cb2.jpg",
				"stock": 300,
				"sales": 0,
				"sn": "00005",
				"weight": 1,
				"price": "55.80",
				"goods_sku_text": "清爽去油,750ml",
				"status": "up",
				"groupon_price": "49.00",
				"activity_type": "groupon",
				"activity_id": "3",
				"item_goods_sku_price": {
					"id": 21,
					"activity_id": 3,
					"sku_price_id": 53,
					"goods_id": 11,
					"stock": 300,
					"sales": 0,
					"price": "49.00",
					"status": "up"
				},
				"goods_sku_id_arr": ["60", "64"]
			}, {
				"id": 54,
				"goods_sku_ids": "61,64",
				"goods_id": 11,
				"weigh": 0,
				"image": "http://shopro-1253949872.image.myqcloud.com/uploads/20200429/3c8b11fa255b1a93b18b1aa5e53ca158.jpg",
				"stock": 300,
				"sales": 0,
				"sn": "00005",
				"weight": 1,
				"price": "55.80",
				"goods_sku_text": "丝质柔滑,750ml",
				"status": "up",
				"groupon_price": "49.00",
				"activity_type": "groupon",
				"activity_id": "3",
				"item_goods_sku_price": {
					"id": 22,
					"activity_id": 3,
					"sku_price_id": 54,
					"goods_id": 11,
					"stock": 300,
					"sales": 0,
					"price": "49.00",
					"status": "up"
				},
				"goods_sku_id_arr": ["61", "64"]
			}, {
				"id": 55,
				"goods_sku_ids": "62,64",
				"goods_id": 11,
				"weigh": 0,
				"image": "http://shopro-1253949872.image.myqcloud.com/uploads/20200429/bea98e8f65cb9432599eb4614498b798.jpg",
				"stock": 300,
				"sales": 0,
				"sn": "00005",
				"weight": 1,
				"price": "55.80",
				"goods_sku_text": "止痒呵护,750ml",
				"status": "up",
				"groupon_price": "49.00",
				"activity_type": "groupon",
				"activity_id": "3",
				"item_goods_sku_price": {
					"id": 23,
					"activity_id": 3,
					"sku_price_id": 55,
					"goods_id": 11,
					"stock": 300,
					"sales": 0,
					"price": "49.00",
					"status": "up"
				},
				"goods_sku_id_arr": ["62", "64"]
			}],
			"stock": 900,
			"dispatch_type_arr": ["express"]
		}, {
			"id": 10,
			"type": "normal",
			"title": "布艺被子收纳袋衣服整理袋加厚装棉被衣物的搬家打包袋子大号家用",
			"subtitle": "健康环保面料 简约美学 给好生活腾出大空间",
			"weigh": 10,
			"category_ids": "34",
			"image": "http://api.7wpp.com/uploads/20200415/7395febcecb1d2088b6f7a37d4c252e9.jpg",
			"price": "29.00",
			"original_price": "70.00",
			"is_sku": 1,
			"likes": 0,
			"views": 98,
			"sales": 0,
			"show_sales": 0,
			"dispatch_type": "express",
			"dispatch_ids": "1",
			"deletetime": null,
			"total_sales": 14,
			"activity": {
				"goods_ids": "12,11,10,9",
				"richtext_title": "拼团说明",
				"rules": {
					"limit_buy": "4",
					"order_auto_close": "5",
					"activity_auto_close": "10",
					"team_num": "3",
					"is_alone": "1",
					"is_fictitious": "1",
					"fictitious_num": "2",
					"valid_time": "24",
					"team_card": "1"
				},
				"richtext_id": "4",
				"title": "超值拼团",
				"id": "3",
				"endtime": "1645977600",
				"starttime": "1610121600",
				"type": "groupon"
			},
			"activity_type": "groupon",
			"groupon_price": "19.00",
			"sku_price": [{
				"id": 47,
				"goods_sku_ids": "53,57",
				"goods_id": 10,
				"weigh": 0,
				"image": "http://shopro-1253949872.image.myqcloud.com/uploads/20200429/11c4040f1c5e3a41908fc36823738248.jpg",
				"stock": 300,
				"sales": 0,
				"sn": "1563123516",
				"weight": 1,
				"price": "29.00",
				"goods_sku_text": "S,浅灰色",
				"status": "up",
				"groupon_price": "19.00",
				"activity_type": "groupon",
				"activity_id": "3",
				"item_goods_sku_price": {
					"id": 24,
					"activity_id": 3,
					"sku_price_id": 47,
					"goods_id": 10,
					"stock": 300,
					"sales": 0,
					"price": "19.00",
					"status": "up"
				},
				"goods_sku_id_arr": ["53", "57"]
			}, {
				"id": 48,
				"goods_sku_ids": "53,58",
				"goods_id": 10,
				"weigh": 0,
				"image": "http://shopro-1253949872.image.myqcloud.com/uploads/20200429/6ffc2d3419184216a0439e60e3b378e7.jpg",
				"stock": 300,
				"sales": 0,
				"sn": "1563123516",
				"weight": 1,
				"price": "29.00",
				"goods_sku_text": "S,海蓝",
				"status": "up",
				"groupon_price": "19.00",
				"activity_type": "groupon",
				"activity_id": "3",
				"item_goods_sku_price": {
					"id": 25,
					"activity_id": 3,
					"sku_price_id": 48,
					"goods_id": 10,
					"stock": 300,
					"sales": 0,
					"price": "19.00",
					"status": "up"
				},
				"goods_sku_id_arr": ["53", "58"]
			}, {
				"id": 49,
				"goods_sku_ids": "54,57",
				"goods_id": 10,
				"weigh": 0,
				"image": "http://shopro-1253949872.image.myqcloud.com/uploads/20200429/11c4040f1c5e3a41908fc36823738248.jpg",
				"stock": 300,
				"sales": 0,
				"sn": "1563123516",
				"weight": 1,
				"price": "42.00",
				"goods_sku_text": "L,浅灰色",
				"status": "up",
				"groupon_price": "24.50",
				"activity_type": "groupon",
				"activity_id": "3",
				"item_goods_sku_price": {
					"id": 26,
					"activity_id": 3,
					"sku_price_id": 49,
					"goods_id": 10,
					"stock": 300,
					"sales": 0,
					"price": "24.50",
					"status": "up"
				},
				"goods_sku_id_arr": ["54", "57"]
			}, {
				"id": 50,
				"goods_sku_ids": "54,58",
				"goods_id": 10,
				"weigh": 0,
				"image": "http://shopro-1253949872.image.myqcloud.com/uploads/20200429/6ffc2d3419184216a0439e60e3b378e7.jpg",
				"stock": 300,
				"sales": 0,
				"sn": "1563123516",
				"weight": 1,
				"price": "42.00",
				"goods_sku_text": "L,海蓝",
				"status": "up",
				"groupon_price": "24.50",
				"activity_type": "groupon",
				"activity_id": "3",
				"item_goods_sku_price": {
					"id": 27,
					"activity_id": 3,
					"sku_price_id": 50,
					"goods_id": 10,
					"stock": 300,
					"sales": 0,
					"price": "24.50",
					"status": "up"
				},
				"goods_sku_id_arr": ["54", "58"]
			}, {
				"id": 51,
				"goods_sku_ids": "55,57",
				"goods_id": 10,
				"weigh": 0,
				"image": "http://shopro-1253949872.image.myqcloud.com/uploads/20200429/11c4040f1c5e3a41908fc36823738248.jpg",
				"stock": 300,
				"sales": 0,
				"sn": "1563123516",
				"weight": 1,
				"price": "48.00",
				"goods_sku_text": "SL,浅灰色",
				"status": "up",
				"groupon_price": "29.00",
				"activity_type": "groupon",
				"activity_id": "3",
				"item_goods_sku_price": {
					"id": 28,
					"activity_id": 3,
					"sku_price_id": 51,
					"goods_id": 10,
					"stock": 300,
					"sales": 0,
					"price": "29.00",
					"status": "up"
				},
				"goods_sku_id_arr": ["55", "57"]
			}, {
				"id": 52,
				"goods_sku_ids": "55,58",
				"goods_id": 10,
				"weigh": 0,
				"image": "http://shopro-1253949872.image.myqcloud.com/uploads/20200429/6ffc2d3419184216a0439e60e3b378e7.jpg",
				"stock": 300,
				"sales": 0,
				"sn": "1563123516",
				"weight": 1,
				"price": "48.00",
				"goods_sku_text": "SL,海蓝",
				"status": "up",
				"groupon_price": "29.00",
				"activity_type": "groupon",
				"activity_id": "3",
				"item_goods_sku_price": {
					"id": 29,
					"activity_id": 3,
					"sku_price_id": 52,
					"goods_id": 10,
					"stock": 300,
					"sales": 0,
					"price": "29.00",
					"status": "up"
				},
				"goods_sku_id_arr": ["55", "58"]
			}],
			"stock": 1800,
			"dispatch_type_arr": ["express"]
		}, {
			"id": 9,
			"type": "normal",
			"title": "Dior迪奥瘾诱魅惑漆光唇釉唇膏口红固体唇釉黑管超模",
			"subtitle": "持久滋润 丰唇塑型 魅色出众",
			"weigh": 9,
			"category_ids": "76",
			"image": "http://api.7wpp.com/uploads/20200415/e4e915a287ae303892d18fe661a9465c.jpg",
			"price": "288.00",
			"original_price": "368.00",
			"is_sku": 1,
			"likes": 5865,
			"views": 6670,
			"sales": 0,
			"show_sales": 0,
			"dispatch_type": "express",
			"dispatch_ids": "1",
			"deletetime": null,
			"total_sales": 6535,
			"activity": {
				"goods_ids": "12,11,10,9",
				"richtext_title": "拼团说明",
				"rules": {
					"limit_buy": "4",
					"order_auto_close": "5",
					"activity_auto_close": "10",
					"team_num": "3",
					"is_alone": "1",
					"is_fictitious": "1",
					"fictitious_num": "2",
					"valid_time": "24",
					"team_card": "1"
				},
				"richtext_id": "4",
				"title": "超值拼团",
				"id": "3",
				"endtime": "1645977600",
				"starttime": "1610121600",
				"type": "groupon"
			},
			"activity_type": "groupon",
			"groupon_price": "198.00",
			"sku_price": [{
				"id": 44,
				"goods_sku_ids": "49",
				"goods_id": 9,
				"weigh": 0,
				"image": "http://shopro-1253949872.image.myqcloud.com/uploads/20200429/64a764c680de0ad000d84ac66eda0a03.webp.jpg",
				"stock": 300,
				"sales": 0,
				"sn": "0005",
				"weight": 0,
				"price": "288.00",
				"goods_sku_text": "554",
				"status": "up",
				"groupon_price": "198.00",
				"activity_type": "groupon",
				"activity_id": "3",
				"item_goods_sku_price": {
					"id": 30,
					"activity_id": 3,
					"sku_price_id": 44,
					"goods_id": 9,
					"stock": 300,
					"sales": 0,
					"price": "198.00",
					"status": "up"
				},
				"goods_sku_id_arr": ["49"]
			}, {
				"id": 45,
				"goods_sku_ids": "50",
				"goods_id": 9,
				"weigh": 0,
				"image": "http://shopro-1253949872.image.myqcloud.com/uploads/20200429/c75465f064cfc6ee78de017cb1d4fe86.webp.jpg",
				"stock": 300,
				"sales": 0,
				"sn": "0005",
				"weight": 0,
				"price": "288.00",
				"goods_sku_text": "684",
				"status": "up",
				"groupon_price": "198.00",
				"activity_type": "groupon",
				"activity_id": "3",
				"item_goods_sku_price": {
					"id": 31,
					"activity_id": 3,
					"sku_price_id": 45,
					"goods_id": 9,
					"stock": 300,
					"sales": 0,
					"price": "198.00",
					"status": "up"
				},
				"goods_sku_id_arr": ["50"]
			}, {
				"id": 46,
				"goods_sku_ids": "51",
				"goods_id": 9,
				"weigh": 0,
				"image": "http://shopro-1253949872.image.myqcloud.com/uploads/20200429/e4e915a287ae303892d18fe661a9465c.webp.jpg",
				"stock": 300,
				"sales": 0,
				"sn": "0005",
				"weight": 0,
				"price": "288.00",
				"goods_sku_text": "740",
				"status": "up",
				"groupon_price": "198.00",
				"activity_type": "groupon",
				"activity_id": "3",
				"item_goods_sku_price": {
					"id": 32,
					"activity_id": 3,
					"sku_price_id": 46,
					"goods_id": 9,
					"stock": 300,
					"sales": 0,
					"price": "198.00",
					"status": "up"
				},
				"goods_sku_id_arr": ["51"]
			}],
			"stock": 900,
			"dispatch_type_arr": ["express"]
		}, {
			"id": 8,
			"type": "normal",
			"title": "源氏木语全实木沙发橡木现代简约木沙发客厅家具北欧布艺沙发组合",
			"subtitle": "FAS级橡木 12cm宽大扶手 橡木铺板 带插座",
			"weigh": 8,
			"category_ids": "17,26",
			"image": "http://api.7wpp.com/uploads/20200415/1814b306eda14764c00b7b40cbec4f90.jpg",
			"price": "3280",
			"original_price": "8200.00",
			"is_sku": 1,
			"likes": 0,
			"views": 89,
			"sales": 10,
			"show_sales": 0,
			"dispatch_type": "express",
			"dispatch_ids": "1",
			"deletetime": null,
			"total_sales": 10,
			"activity": null,
			"activity_type": null,
			"sku_price": [{
				"id": 40,
				"goods_sku_ids": "43,46",
				"goods_id": 8,
				"weigh": 0,
				"image": "http://shopro-1253949872.image.myqcloud.com/uploads/20200429/682f98d4fce303d51789ff1bf9044384.jpg",
				"stock": 15,
				"sales": 5,
				"sn": "Y06H02",
				"weight": 40,
				"price": "3280.00",
				"goods_sku_text": "两人,原木色",
				"status": "up",
				"goods_sku_id_arr": ["43", "46"]
			}, {
				"id": 41,
				"goods_sku_ids": "43,47",
				"goods_id": 8,
				"weigh": 0,
				"image": "http://shopro-1253949872.image.myqcloud.com/uploads/20200429/b06c9f3b60b98e17d8e520104ae7ba80.jpg",
				"stock": 20,
				"sales": 0,
				"sn": "Y06H02",
				"weight": 40,
				"price": "3280.00",
				"goods_sku_text": "两人,胡桃色",
				"status": "up",
				"goods_sku_id_arr": ["43", "47"]
			}, {
				"id": 42,
				"goods_sku_ids": "44,46",
				"goods_id": 8,
				"weigh": 0,
				"image": "http://shopro-1253949872.image.myqcloud.com/uploads/20200429/682f98d4fce303d51789ff1bf9044384.jpg",
				"stock": 19,
				"sales": 1,
				"sn": "Y06H02",
				"weight": 40,
				"price": "4180.00",
				"goods_sku_text": "三人,原木色",
				"status": "up",
				"goods_sku_id_arr": ["44", "46"]
			}, {
				"id": 43,
				"goods_sku_ids": "44,47",
				"goods_id": 8,
				"weigh": 0,
				"image": "http://shopro-1253949872.image.myqcloud.com/uploads/20200429/b06c9f3b60b98e17d8e520104ae7ba80.jpg",
				"stock": 16,
				"sales": 4,
				"sn": "Y06H02",
				"weight": 40,
				"price": "4180.00",
				"goods_sku_text": "三人,胡桃色",
				"status": "up",
				"goods_sku_id_arr": ["44", "47"]
			}],
			"stock": 70,
			"dispatch_type_arr": ["express"]
		}]
	}
}
